…
next, i’ll manually go through some of the ASVs to see if they should be
there or not…

asv summary table

``` r
asv_filtered %>%
  group_by(taxon) %>%
  filter(taxon != "NA") %>%
  mutate(sum=sum(reads)) %>%
  mutate(prop = reads/sum) %>%
  arrange(taxon)
```

    ## # A tibble: 33 × 6
    ## # Groups:   taxon [4]
    ##    ASV     reads taxon               taxonomic_level     sum    prop
    ##    <chr>   <int> <chr>               <chr>             <int>   <dbl>
    ##  1 ASV3   740362 Boreogadus saida    species          782164 0.947  
    ##  2 ASV12   18030 Boreogadus saida    species          782164 0.0231 
    ##  3 ASV15   14488 Boreogadus saida    species          782164 0.0185 
    ##  4 ASV17    5382 Boreogadus saida    species          782164 0.00688
    ##  5 ASV24    2311 Boreogadus saida    species          782164 0.00295
    ##  6 ASV26    1591 Boreogadus saida    species          782164 0.00203
    ##  7 ASV7    79916 Eleginus gracilis   species           80815 0.989  
    ##  8 ASV35     899 Eleginus gracilis   species           80815 0.0111 
    ##  9 ASV1  1402912 Gadus chalcogrammus species         1616932 0.868  
    ## 10 ASV6    90103 Gadus chalcogrammus species         1616932 0.0557 
    ## # … with 23 more rows
…
