…
``` r
#amp_est_50

amp_est <- amp_est_95 %>%
  left_join(amp_est_50)
```

    ## Joining, by = c("primer_set", "Species", "estimate", "p.value")

``` r
amp_est
```

    ## # A tibble: 30 × 8
    ## # Groups:   primer_set, Species [30]
    ##    primer_set Species              estimate   l95   u95  p.value   l50   u50
    ##    <fct>      <chr>                   <dbl> <dbl> <dbl>    <dbl> <dbl> <dbl>
    ##  1 S1         Arctogadus glacialis    1.06  0.791 1.33  2.89e- 9 0.971 1.15 
    ##  2 S1         Boreogadus saida        0.537 0.449 0.625 3.39e-14 0.508 0.567
    ##  3 S1         Eleginus gracilis       0.866 0.708 1.02  6.50e-13 0.813 0.919
    ##  4 S1         Gadus chalcogrammus     0.852 0.717 0.986 1.32e-14 0.806 0.897
    ##  5 S1         Gadus macrocephalus     0.804 0.703 0.904 1.34e-17 0.770 0.837
    ##  6 S1         Microgadus proximus     1.45  0.983 1.93  3.97e- 7 1.30  1.61 
    ##  7 S2         Arctogadus glacialis    0.382 0.286 0.479 2.79e- 9 0.350 0.415
    ##  8 S2         Boreogadus saida        0.947 0.847 1.05  1.47e-19 0.914 0.981
    ##  9 S2         Eleginus gracilis       0.633 0.405 0.860 2.64e- 6 0.556 0.709
    ## 10 S2         Gadus chalcogrammus     0.893 0.659 1.13  6.03e- 9 0.814 0.971
    ## # … with 20 more rows
…
