…
are there any samples that have made it to this point that don’t
actually have any reads?

``` r
asv_table_filter4 %>%
  group_by(Sample_ID) %>%
  summarise(total_reads = sum(reads)) %>%
  arrange(total_reads)
```

    ## # A tibble: 365 × 2
    ##    Sample_ID total_reads
    ##    <chr>           <dbl>
    ##  1 e02165-B            0
    ##  2 e02395-A            0
    ##  3 e02395-C            0
    ##  4 e02421-B            0
    ##  5 e02421-C            0
    ##  6 e02137-A         2029
    ##  7 e02137-C         2518
    ##  8 e02177-C         2706
    ##  9 e02416-A         3424
    ## 10 e02428-A         3577
    ## # ℹ 355 more rows
…
